Building reproducible analytical pipelines with R - 3 Project start
…
Running this code results in a neat data set:

raw_data

# A tibble: 1,343 × 5
   year  locality    n_offers average_price_nominal_euros
   <chr> <chr>          <dbl> <chr>                      
 1 2010  Bascharage       192 593698.31000000006         
 2 2010  Beaufort         266 461160.29                  
 3 2010  Bech              65 621760.22                  
 4 2010  Beckerich        176 444498.68                  
 5 2010  Berdorf          111 504040.85                  
 6 2010  Bertrange        264 795338.87                  
 7 2010  Bettembourg      304 555628.29                  
 8 2010  Bettendorf        94 495074.38                  
 9 2010  Betzdorf         119 625914.47                  
10 2010  Bissen            70 516465.57                  
# ℹ 1,333 more rows
# ℹ 1 more variable: average_price_m2_nominal_euros <chr>
…
Warning: There were 2 warnings in `mutate()`.
The first warning was:
ℹ In argument: `across(starts_with("average"),
  as.numeric)`.
Caused by warning:
! NAs introduced by coercion
ℹ Run `dplyr::last_dplyr_warnings()` to see the 1 remaining
  warning.

Now this is interesting – converting the average columns to numeric resulted in some NA values. Let’s see what happened:

raw_data |>
  filter(is.na(average_price_nominal_euros))

# A tibble: 290 × 5
   year  locality            n_offers average_price_nomina…¹
   <chr> <chr>                  <dbl>                  <dbl>
 1 2010  Consthum                  29                     NA
 2 2010  Esch-sur-Sûre              7                     NA
 3 2010  Heiderscheid              29                     NA
 4 2010  Hoscheid                  26                     NA
 5 2010  Saeul                     14                     NA
 6 2010  <NA>                      NA                     NA
 7 2010  <NA>                      NA                     NA
 8 2010  Total d'offres         19278                     NA
 9 2010  <NA>                      NA                     NA
10 2010  Source : Ministère…       NA                     NA
# ℹ 280 more rows
# ℹ abbreviated name: ¹​average_price_nominal_euros
# ℹ 1 more variable: average_price_m2_nominal_euros <dbl>
…
